<?xml version="1.0" encoding="UTF-8"?>
<model ref="r:3cc6f6b5-2050-435d-9ef7-dce6f9be462b(org.clawiz.core.common.language.typesystem)">
  <persistence version="9" />
  <languages>
    <devkit ref="00000000-0000-4000-0000-1de82b3a4936(jetbrains.mps.devkit.aspect.typesystem)" />
  </languages>
  <imports />
  <registry />
</model>

